<?xml version="1.0" encoding="utf-8"?>
<svg xmlns="http://www.w3.org/2000/svg" xmlns:xlink="http://www.w3.org/1999/xlink" style="margin: auto; background: none; display: block; shape-rendering: auto;" width="500px" height="500px" viewBox="0 0 100 100" preserveAspectRatio="xMidYMid">
<g transform="translate(26.666666666666668,26.666666666666668)">
  <rect x="-20" y="-20" width="40" height="40" fill="#ffb6bb">
    <animateTransform attributeName="transform" type="scale" repeatCount="indefinite" dur="1s" keyTimes="0;1" values="1.1500000000000001;1" begin="-0.3s"></animateTransform>
  </rect>
</g>
<g transform="translate(73.33333333333333,26.666666666666668)">
  <rect x="-20" y="-20" width="40" height="40" fill="#ffe691">
    <animateTransform attributeName="transform" type="scale" repeatCount="indefinite" dur="1s" keyTimes="0;1" values="1.1500000000000001;1" begin="-0.2s"></animateTransform>
  </rect>
</g>
<g transform="translate(26.666666666666668,73.33333333333333)">
  <rect x="-20" y="-20" width="40" height="40" fill="#95d5ee">
    <animateTransform attributeName="transform" type="scale" repeatCount="indefinite" dur="1s" keyTimes="0;1" values="1.1500000000000001;1" begin="0s"></animateTransform>
  </rect>
</g>
<g transform="translate(73.33333333333333,73.33333333333333)">
  <rect x="-20" y="-20" width="40" height="40" fill="#585872">
    <animateTransform attributeName="transform" type="scale" repeatCount="indefinite" dur="1s" keyTimes="0;1" values="1.1500000000000001;1" begin="-0.1s"></animateTransform>
  </rect>
</g>
<!-- [ldio] generated by https://loading.io/ --></svg>